{
    "context": "TESTING",
    "created": "2019-06-14T18:35:58.638783Z",
    "id": "ta1-perspecta-pipeline-2019-06-rf",
    "inputs": [
        {
            "name": "inputs"
        }
    ],
    "outputs": [
        {
            "data": "steps.4.produce",
            "name": "output predictions"
        }
    ],
    "schema": "https://metadata.datadrivendiscovery.org/schemas/v0/pipeline.json",
    "steps": [
        {
            "arguments": {
                "inputs": {
                    "data": "inputs.0",
                    "type": "CONTAINER"
                }
            },
            "outputs": [
                {
                    "id": "produce"
                }
            ],
            "primitive": {
                "id": "f31f8c1f-d1c5-43e5-a4b2-2ae4a761ef2e",
                "name": "Denormalize datasets",
                "python_path": "d3m.primitives.data_transformation.denormalize.Common",
                "version": "0.2.0"
            },
            "type": "PRIMITIVE"
        },
        {
            "arguments": {
                "inputs": {
                    "data": "inputs.0",
                    "type": "CONTAINER"
                }
            },
            "outputs": [
                {
                    "id": "produce"
                }
            ],
            "primitive": {
                "id": "4b42ce1e-9b98-4a25-b68e-fad13311eb65",
                "name": "Extract a DataFrame from a Dataset",
                "python_path": "d3m.primitives.data_transformation.dataset_to_dataframe.Common",
                "version": "0.3.0"
            },
            "type": "PRIMITIVE"
        },
        {
            "arguments": {
                "inputs": {
                    "data": "steps.1.produce",
                    "type": "CONTAINER"
                }
            },
            "hyperparams": {
                "semantic_types": {
                    "data": [
                        "https://metadata.datadrivendiscovery.org/types/TrueTarget"
                    ],
                    "type": "VALUE"
                }
            },
            "outputs": [
                {
                    "id": "produce"
                }
            ],
            "primitive": {
                "id": "4503a4c6-42f7-45a1-a1d4-ed69699cf5e1",
                "name": "Extracts columns by semantic type",
                "python_path": "d3m.primitives.data_transformation.extract_columns_by_semantic_types.DataFrameCommon",
                "version": "0.2.0"
            },
            "type": "PRIMITIVE"
        },
        {
            "arguments": {
                "inputs": {
                    "data": "steps.1.produce",
                    "type": "CONTAINER"
                },
                "outputs": {
                    "data": "steps.2.produce",
                    "type": "CONTAINER"
                }
            },
            "hyperparams": {
                "add_index_columns": {
                    "data": false,
                    "type": "VALUE"
                },
                "bootstrap": {
                    "data": true,
                    "type": "VALUE"
                },
                "class_weight": {
                    "data": {
                        "case": "str",
                        "value": "balanced"
                    },
                    "type": "VALUE"
                },
                "criterion": {
                    "data": "gini",
                    "type": "VALUE"
                },
                "error_on_no_input": {
                    "data": true,
                    "type": "VALUE"
                },
                "exclude_input_columns": {
                    "data": [],
                    "type": "VALUE"
                },
                "exclude_output_columns": {
                    "data": [],
                    "type": "VALUE"
                },
                "max_depth": {
                    "data": {
                        "case": "int",
                        "value": 10
                    },
                    "type": "VALUE"
                },
                "max_features": {
                    "data": {
                        "case": "calculated",
                        "value": "auto"
                    },
                    "type": "VALUE"
                },
                "max_leaf_nodes": {
                    "data": {
                        "case": "none",
                        "value": null
                    },
                    "type": "VALUE"
                },
                "min_impurity_decrease": {
                    "data": 0.0,
                    "type": "VALUE"
                },
                "min_samples_leaf": {
                    "data": {
                        "case": "absolute",
                        "value": 1
                    },
                    "type": "VALUE"
                },
                "min_samples_split": {
                    "data": {
                        "case": "absolute",
                        "value": 2
                    },
                    "type": "VALUE"
                },
                "min_weight_fraction_leaf": {
                    "data": 0,
                    "type": "VALUE"
                },
                "n_estimators": {
                    "data": 5000,
                    "type": "VALUE"
                },
                "n_jobs": {
                    "data": {
                        "case": "limit",
                        "value": 4
                    },
                    "type": "VALUE"
                },
                "oob_score": {
                    "data": false,
                    "type": "VALUE"
                },
                "return_result": {
                    "data": "new",
                    "type": "VALUE"
                },
                "use_input_columns": {
                    "data": [],
                    "type": "VALUE"
                },
                "use_output_columns": {
                    "data": [],
                    "type": "VALUE"
                },
                "use_semantic_types": {
                    "data": false,
                    "type": "VALUE"
                },
                "warm_start": {
                    "data": false,
                    "type": "VALUE"
                }
            },
            "outputs": [
                {
                    "id": "produce"
                }
            ],
            "primitive": {
                "id": "5bb6d960-8b6d-4d90-aa8d-88bb9994a20a",
                "name": "lupi_rf.LupiRFClassifier",
                "python_path": "d3m.primitives.classification.lupi_rf.LupiRFClassifier",
                "version": "v4.1.0"
            },
            "type": "PRIMITIVE"
        },
        {
            "arguments": {
                "inputs": {
                    "data": "steps.3.produce",
                    "type": "CONTAINER"
                },
                "reference": {
                    "data": "steps.1.produce",
                    "type": "CONTAINER"
                }
            },
            "outputs": [
                {
                    "id": "produce"
                }
            ],
            "primitive": {
                "id": "8d38b340-f83f-4877-baaa-162f8e551736",
                "name": "Construct pipeline predictions output",
                "python_path": "d3m.primitives.data_transformation.construct_predictions.DataFrameCommon",
                "version": "0.3.0"
            },
            "type": "PRIMITIVE"
        }
    ]
}
