{
    "id": "e57ed507-645f-4c01-8067-0ae3f9105dad",
    "schema": "https://metadata.datadrivendiscovery.org/schemas/v0/pipeline.json",
    "created": "2020-06-04T20:58:58.986882Z",
    "inputs": [
        {
            "name": "inputs"
        }
    ],
    "outputs": [
        {
            "data": "steps.2.produce",
            "name": "Predictions"
        }
    ],
    "steps": [
        {
            "type": "PRIMITIVE",
            "primitive": {
                "id": "09f2eea8-667c-44b8-a955-6a153ba9ccc3",
                "version": "0.1.0",
                "python_path": "d3m.primitives.link_prediction.data_conversion.JHU",
                "name": "jhu.link_pred_graph_reader",
                "digest": "7df134074515657b132f180576b7f17fd04c90f7799490f1286e3e733837e146"
            },
            "arguments": {
                "inputs": {
                    "type": "CONTAINER",
                    "data": "inputs.0"
                }
            },
            "outputs": [
                {
                    "id": "produce"
                }
            ]
        },
        {
            "type": "PRIMITIVE",
            "primitive": {
                "id": "b940ccbd-9e9b-3166-af50-210bfd79251b",
                "version": "0.1.0",
                "python_path": "d3m.primitives.data_transformation.adjacency_spectral_embedding.JHU",
                "name": "jhu.ase",
                "digest": "e8e4387b720fe06964f4799a1766fb75f813cdb5e88675a5c4d53c05a533d0e8"
            },
            "arguments": {
                "inputs": {
                    "type": "CONTAINER",
                    "data": "steps.0.produce"
                }
            },
            "outputs": [
                {
                    "id": "produce"
                }
            ],
            "hyperparams": {
                "which_elbow": {
                    "type": "VALUE",
                    "data": 1
                },
                "max_dimension": {
                    "type": "VALUE",
                    "data": 2
                },
                "use_attributes": {
                    "type": "VALUE",
                    "data": false
                }
            }
        },
        {
            "type": "PRIMITIVE",
            "primitive": {
                "id": "25e97696-b96f-4f5c-8620-b340fe83414d",
                "version": "0.1.0",
                "python_path": "d3m.primitives.link_prediction.rank_classification.JHU",
                "name": "jhu.link_pred_rc",
                "digest": "26b6da39c9ed2deff6989850881f6061f8f212543e2dc8d42edb09270f1e5018"
            },
            "arguments": {
                "inputs": {
                    "type": "CONTAINER",
                    "data": "steps.1.produce"
                }
            },
            "outputs": [
                {
                    "id": "produce"
                }
            ]
        }
    ],
    "digest": "645b8ed2cc7290f2040a825e9cfe3ca5793d18e8900af256d9aefc587031de6b"
}