{
  "id": "e1468503-c8f4-4dca-b735-553ba7ff6be4",
  "schema": "https://metadata.datadrivendiscovery.org/schemas/v0/pipeline.json",
  "created": "2020-06-03T02:45:53.179803Z",
  "inputs": [
    {
      "name": "input dataset"
    }
  ],
  "outputs": [
    {
      "data": "steps.9.produce",
      "name": "predictions of input dataset"
    }
  ],
  "steps": [
    {
      "type": "PRIMITIVE",
      "primitive": {
        "id": "dsbox-multi-table-featurization-aggregation",
        "version": "1.5.3",
        "python_path": "d3m.primitives.feature_extraction.multitable_featurization.DSBOX",
        "name": "DSBox Multiple Table Featurizer Aggregation",
        "digest": "a12d5a7676dd7dfa494955439b4f7e9bd2cc246e4f9962147be482ee998b299b"
      },
      "arguments": {
        "inputs": {
          "type": "CONTAINER",
          "data": "inputs.0"
        }
      },
      "outputs": [
        {
          "id": "produce"
        }
      ]
    },
    {
      "type": "PRIMITIVE",
      "primitive": {
        "id": "e193afa1-b45e-4d29-918f-5bb1fa3b88a7",
        "version": "0.2.0",
        "python_path": "d3m.primitives.schema_discovery.profiler.Common",
        "name": "Determine missing semantic types for columns automatically",
        "digest": "7f43c42521df224f8bb9c3cd4e9a17e3037d59db6dce451b8e01a9917f51cda3"
      },
      "arguments": {
        "inputs": {
          "type": "CONTAINER",
          "data": "steps.0.produce"
        }
      },
      "outputs": [
        {
          "id": "produce"
        }
      ]
    },
    {
      "type": "PRIMITIVE",
      "primitive": {
        "id": "4503a4c6-42f7-45a1-a1d4-ed69699cf5e1",
        "version": "0.4.0",
        "python_path": "d3m.primitives.data_transformation.extract_columns_by_semantic_types.Common",
        "name": "Extracts columns by semantic type",
        "digest": "f036d0219339094750e3408253e07b670d1398c6c8f5d95de4fe69a3e9884017"
      },
      "arguments": {
        "inputs": {
          "type": "CONTAINER",
          "data": "steps.1.produce"
        }
      },
      "outputs": [
        {
          "id": "produce"
        }
      ],
      "hyperparams": {
        "semantic_types": {
          "type": "VALUE",
          "data": [
            "https://metadata.datadrivendiscovery.org/types/PrimaryKey",
            "https://metadata.datadrivendiscovery.org/types/Attribute"
          ]
        }
      }
    },
    {
      "type": "PRIMITIVE",
      "primitive": {
        "id": "4503a4c6-42f7-45a1-a1d4-ed69699cf5e1",
        "version": "0.4.0",
        "python_path": "d3m.primitives.data_transformation.extract_columns_by_semantic_types.Common",
        "name": "Extracts columns by semantic type",
        "digest": "f036d0219339094750e3408253e07b670d1398c6c8f5d95de4fe69a3e9884017"
      },
      "arguments": {
        "inputs": {
          "type": "CONTAINER",
          "data": "steps.0.produce"
        }
      },
      "outputs": [
        {
          "id": "produce"
        }
      ],
      "hyperparams": {
        "semantic_types": {
          "type": "VALUE",
          "data": [
            "https://metadata.datadrivendiscovery.org/types/TrueTarget"
          ]
        }
      }
    },
    {
      "type": "PRIMITIVE",
      "primitive": {
        "id": "DSBox-unary-encoder",
        "version": "1.5.3",
        "python_path": "d3m.primitives.data_preprocessing.unary_encoder.DSBOX",
        "name": "DSBox Unary Data Encoder",
        "digest": "de177d6e403a61fc26075d1cba23865df648d84765b984510a16948d00f3ebcc"
      },
      "arguments": {
        "inputs": {
          "type": "CONTAINER",
          "data": "steps.2.produce"
        }
      },
      "outputs": [
        {
          "id": "produce"
        }
      ]
    },
    {
      "type": "PRIMITIVE",
      "primitive": {
        "id": "18f0bb42-6350-3753-8f2d-d1c3da70f279",
        "version": "1.5.3",
        "python_path": "d3m.primitives.data_preprocessing.encoder.DSBOX",
        "name": "ISI DSBox Data Encoder",
        "digest": "7eb6b549d93df720c07d7f7cf089acb8415c3fc5e69c2debf05e569ad7e8d21f"
      },
      "arguments": {
        "inputs": {
          "type": "CONTAINER",
          "data": "steps.4.produce"
        }
      },
      "outputs": [
        {
          "id": "produce"
        }
      ]
    },
    {
      "type": "PRIMITIVE",
      "primitive": {
        "id": "7ddf2fd8-2f7f-4e53-96a7-0d9f5aeecf93",
        "version": "1.5.3",
        "python_path": "d3m.primitives.data_transformation.to_numeric.DSBOX",
        "name": "ISI DSBox To Numeric DataFrame",
        "digest": "78997a9147fd4a2ccbadc4e9ee1953d349eb718e1e76ec78337ca2e10cad9752"
      },
      "arguments": {
        "inputs": {
          "type": "CONTAINER",
          "data": "steps.5.produce"
        }
      },
      "outputs": [
        {
          "id": "produce"
        }
      ]
    },
    {
      "type": "PRIMITIVE",
      "primitive": {
        "id": "7894b699-61e9-3a50-ac9f-9bc510466667",
        "version": "1.5.3",
        "python_path": "d3m.primitives.data_preprocessing.mean_imputation.DSBOX",
        "name": "DSBox Mean Imputer",
        "digest": "e73b4c953bc09b2d1b03e99baa67d88ec123c1ff131b737f1869f47518b7c336"
      },
      "arguments": {
        "inputs": {
          "type": "CONTAINER",
          "data": "steps.6.produce"
        }
      },
      "outputs": [
        {
          "id": "produce"
        }
      ]
    },
    {
      "type": "PRIMITIVE",
      "primitive": {
        "id": "f0fd7a62-09b5-3abc-93bb-f5f999f7cc80",
        "version": "2020.5.26",
        "python_path": "d3m.primitives.regression.random_forest.SKlearn",
        "name": "sklearn.ensemble.forest.RandomForestRegressor",
        "digest": "a47631439a900b370d82895f715b2179996cf22987bc297a2e2e11e2bbfac62a"
      },
      "arguments": {
        "inputs": {
          "type": "CONTAINER",
          "data": "steps.7.produce"
        },
        "outputs": {
          "type": "CONTAINER",
          "data": "steps.3.produce"
        }
      },
      "outputs": [
        {
          "id": "produce"
        }
      ],
      "hyperparams": {
        "add_index_columns": {
          "type": "VALUE",
          "data": true
        },
        "return_result": {
          "type": "VALUE",
          "data": "new"
        },
        "use_semantic_types": {
          "type": "VALUE",
          "data": true
        }
      }
    },
    {
      "type": "PRIMITIVE",
      "primitive": {
        "id": "8d38b340-f83f-4877-baaa-162f8e551736",
        "version": "0.3.0",
        "python_path": "d3m.primitives.data_transformation.construct_predictions.Common",
        "name": "Construct pipeline predictions output",
        "digest": "9d75def19d2f401d3352d2d4b924269ddfca67d7bf998dc6bdd246d990ada0f4"
      },
      "arguments": {
        "reference": {
          "type": "CONTAINER",
          "data": "steps.0.produce"
        },
        "inputs": {
          "type": "CONTAINER",
          "data": "steps.8.produce"
        }
      },
      "outputs": [
        {
          "id": "produce"
        }
      ]
    }
  ],
  "name": "UU3_Test_Template:140286801495600",
  "description": "",
  "digest": "26721f1df4a1213bdd680b56adb546afeb719171cfd34ec01a4eddf13571917f"
}
