{
    "id": "6e15da3c-c2ba-4e1f-b432-2f29adef9fc9",
    "schema": "https://metadata.datadrivendiscovery.org/schemas/v0/pipeline.json",
    "created": "2019-06-17T20:58:25.419769Z",
    "inputs": [
        {
            "name": "inputs"
        }
    ],
    "outputs": [
        {
            "data": "steps.6.produce",
            "name": "output"
        }
    ],
    "steps": [
        {
            "type": "PRIMITIVE",
            "primitive": {
                "id": "f31f8c1f-d1c5-43e5-a4b2-2ae4a761ef2e",
                "version": "0.2.0",
                "python_path": "d3m.primitives.data_transformation.denormalize.Common",
                "name": "Denormalize datasets",
                "digest": "afca078f05899b9f329e1b8cc0973848e39e83a7521d2cade81c1fbad5cf8139"
            },
            "arguments": {
                "inputs": {
                    "type": "CONTAINER",
                    "data": "inputs.0"
                }
            },
            "outputs": [
                {
                    "id": "produce"
                }
            ]
        },
        {
            "type": "PRIMITIVE",
            "primitive": {
                "id": "4b42ce1e-9b98-4a25-b68e-fad13311eb65",
                "version": "0.3.0",
                "python_path": "d3m.primitives.data_transformation.dataset_to_dataframe.Common",
                "name": "Extract a DataFrame from a Dataset",
                "digest": "e557fc176af67913ed241dbe793cf986439157cfe9c4a12f1aafcba3c07b8b6f"
            },
            "arguments": {
                "inputs": {
                    "type": "CONTAINER",
                    "data": "steps.0.produce"
                }
            },
            "outputs": [
                {
                    "id": "produce"
                }
            ]
        },
        {
            "type": "PRIMITIVE",
            "primitive": {
                "id": "d510cb7a-1782-4f51-b44c-58f0236e47c7",
                "version": "0.5.0",
                "python_path": "d3m.primitives.data_transformation.column_parser.DataFrameCommon",
                "name": "Parses strings into their types",
                "digest": "7e16e2b1e559690e221de471826d7d1cd36698bc5140dc00f3c7a6c6b711c3b2"
            },
            "arguments": {
                "inputs": {
                    "type": "CONTAINER",
                    "data": "steps.1.produce"
                }
            },
            "outputs": [
                {
                    "id": "produce"
                }
            ],
            "hyperparams": {
                "parse_semantic_types": {
                    "type": "VALUE",
                    "data": [
                        "http://schema.org/Boolean",
                        "http://schema.org/Integer",
                        "http://schema.org/Float",
                        "https://metadata.datadrivendiscovery.org/types/FloatVector"
                    ]
                }
            }
        },
        {
            "type": "PRIMITIVE",
            "primitive": {
                "id": "4503a4c6-42f7-45a1-a1d4-ed69699cf5e1",
                "version": "0.2.0",
                "python_path": "d3m.primitives.data_transformation.extract_columns_by_semantic_types.DataFrameCommon",
                "name": "Extracts columns by semantic type",
                "digest": "d4fa27a3e215b89d2231d344ec0202e1b8e41ad322deb79c68fd6ca673eae3f7"
            },
            "arguments": {
                "inputs": {
                    "type": "CONTAINER",
                    "data": "steps.2.produce"
                }
            },
            "outputs": [
                {
                    "id": "produce"
                }
            ],
            "hyperparams": {
                "semantic_types": {
                    "type": "VALUE",
                    "data": [
                        "https://metadata.datadrivendiscovery.org/types/Attribute"
                    ]
                }
            }
        },
        {
            "type": "PRIMITIVE",
            "primitive": {
                "id": "4503a4c6-42f7-45a1-a1d4-ed69699cf5e1",
                "version": "0.2.0",
                "python_path": "d3m.primitives.data_transformation.extract_columns_by_semantic_types.DataFrameCommon",
                "name": "Extracts columns by semantic type",
                "digest": "d4fa27a3e215b89d2231d344ec0202e1b8e41ad322deb79c68fd6ca673eae3f7"
            },
            "arguments": {
                "inputs": {
                    "type": "CONTAINER",
                    "data": "steps.2.produce"
                }
            },
            "outputs": [
                {
                    "id": "produce"
                }
            ],
            "hyperparams": {
                "semantic_types": {
                    "type": "VALUE",
                    "data": [
                        "https://metadata.datadrivendiscovery.org/types/Target",
                        "https://metadata.datadrivendiscovery.org/types/TrueTarget"
                    ]
                }
            }
        },
        {
            "type": "PRIMITIVE",
            "primitive": {
                "id": "7c305f3a-442a-41ad-b9db-8c437753b119",
                "version": "0.1.0",
                "python_path": "d3m.primitives.classification.bert_classifier.DistilBertPairClassification",
                "name": "BERT pair classification",
                "digest": "a6ba6fa9c70e1741aeeb97c111c19a7ddd5a4fba286c6d45301f236cae741296"
            },
            "arguments": {
                "inputs": {
                    "type": "CONTAINER",
                    "data": "steps.3.produce"
                },
                "outputs": {
                    "type": "CONTAINER",
                    "data": "steps.4.produce"
                }
            },
            "outputs": [
                {
                    "id": "produce"
                }
            ],
            "hyperparams": {
                "metric": {
                    "type": "VALUE",
                    "data": "f1"
                }
            }
        },
        {
            "type": "PRIMITIVE",
            "primitive": {
                "id": "8d38b340-f83f-4877-baaa-162f8e551736",
                "version": "0.3.0",
                "python_path": "d3m.primitives.data_transformation.construct_predictions.DataFrameCommon",
                "name": "Construct pipeline predictions output",
                "digest": "077921b0d6cee9bbda9494bc60c8b48f8287db8d0bff674056a7c9e5cc92ebb9"
            },
            "arguments": {
                "inputs": {
                    "type": "CONTAINER",
                    "data": "steps.5.produce"
                },
                "reference": {
                    "type": "CONTAINER",
                    "data": "steps.2.produce"
                }
            },
            "outputs": [
                {
                    "id": "produce"
                }
            ]
        }
    ],
    "digest": "48971db1b4bf582c46db8581dbac9215d49bcb66ab17bd39bfaf4eae2c4e8ad3"
}
